<svg width="22" height="16" viewBox="0 0 22 16" fill="none" xmlns="http://www.w3.org/2000/svg">
<path d="M3.48535 15.2354H18.5059C20.4131 15.2354 21.3975 14.2422 21.3975 12.3613V2.86914C21.3975 0.988281 20.4131 0.00390625 18.5059 0.00390625H3.48535C1.58691 0.00390625 0.59375 0.988281 0.59375 2.86914V12.3613C0.59375 14.251 1.58691 15.2354 3.48535 15.2354ZM2.34277 3.02734C2.34277 2.18359 2.79102 1.76172 3.59961 1.76172H18.3916C19.2002 1.76172 19.6484 2.18359 19.6484 3.02734V3.66016H2.34277V3.02734ZM3.59961 13.4775C2.79102 13.4775 2.34277 13.0557 2.34277 12.2119V5.72559H19.6484V12.2119C19.6484 13.0557 19.2002 13.4775 18.3916 13.4775H3.59961ZM4.79492 11.8867H6.94824C7.4668 11.8867 7.81836 11.5439 7.81836 11.0518V9.41699C7.81836 8.9248 7.4668 8.58203 6.94824 8.58203H4.79492C4.28516 8.58203 3.93359 8.9248 3.93359 9.41699V11.0518C3.93359 11.5439 4.28516 11.8867 4.79492 11.8867Z" fill="#1C1C1E"/>
</svg>
