<svg xmlns="http://www.w3.org/2000/svg" width="194.055" height="166.333" viewBox="0 0 194.055 166.333">
    <defs>
        <filter id="Trazado_13485" width="36.322" height="36.322" x="13.409" y="69.999" filterUnits="userSpaceOnUse">
            <feOffset dy="2"/>
            <feGaussianBlur result="blur" stdDeviation="2"/>
            <feFlood flood-opacity=".4"/>
            <feComposite in2="blur" operator="in"/>
            <feComposite in="SourceGraphic"/>
        </filter>
        <filter id="Rectangle" width="135" height="147" x="49.056" y="0" filterUnits="userSpaceOnUse">
            <feOffset dx="1" dy="1"/>
            <feGaussianBlur result="blur-2" stdDeviation="4"/>
            <feFlood flood-color="#6400b4" flood-opacity=".302"/>
            <feComposite in2="blur-2" operator="in"/>
            <feComposite in="SourceGraphic"/>
        </filter>
        <filter id="Path_97" width="104.962" height="54.657" x="60.947" y="41.487" filterUnits="userSpaceOnUse">
            <feOffset dy="2"/>
            <feGaussianBlur result="blur-3" stdDeviation="5"/>
            <feFlood flood-color="#a2a9b8"/>
            <feComposite in2="blur-3" operator="in"/>
            <feComposite in="SourceGraphic"/>
        </filter>
        <filter id="Rectangle-2" width="42" height="42" x="64.556" y="16.5" filterUnits="userSpaceOnUse">
            <feOffset dy="1"/>
            <feGaussianBlur result="blur-4" stdDeviation="2.5"/>
            <feFlood flood-color="#28885f" flood-opacity=".149"/>
            <feComposite in2="blur-4" operator="in"/>
            <feComposite in="SourceGraphic"/>
        </filter>
        <filter id="Trazado_13335" width="41.621" height="41.624" x="20.435" y="123.391" filterUnits="userSpaceOnUse">
            <feOffset dy="2"/>
            <feGaussianBlur result="blur-5" stdDeviation="2"/>
            <feFlood/>
            <feComposite in2="blur-5" operator="in"/>
            <feComposite in="SourceGraphic"/>
        </filter>
        <style>
            .cls-1,.cls-16{fill:none}.cls-2{fill:#41ffaf}.cls-3{fill:#e0e0e0;opacity:.63}.cls-5{fill:#fff}.cls-16{stroke-linecap:round}.cls-10{fill:#00b07f}.cls-16{stroke:#000;stroke-width:.8px}
        </style>
    </defs>
    <g id="Grupo_21745" transform="translate(-1008.944 -152)">
        <g id="Grupo_21743">
            <g id="Componente_200_13" transform="translate(1015.84 192.981)">
                <g id="Grupo_21650" transform="translate(-10.84 -77.981)">
                    <circle id="Elipse_732" cx="51.5" cy="51.5" r="51.5" class="cls-2" transform="translate(36 86)"/>
                    <path id="Trazado_13466" d="M72.8 345.147a1.7 1.7 0 0 0-2.408 0L54.5 361.038a1.7 1.7 0 0 0 2.408 2.407L72.8 347.554a1.7 1.7 0 0 0 0-2.407z" transform="rotate(57 292.321 198.13)"/>
                    <path id="Trazado_13467" d="M4.414 469.5L.5 473.415a1.7 1.7 0 1 0 2.407 2.407l3.915-3.915a1.7 1.7 0 1 0-2.408-2.407z" transform="rotate(57 364.907 290.954)"/>
                    <path id="Trazado_13468" d="M127.282 491.41a1.7 1.7 0 1 0 1.2.5 1.712 1.712 0 0 0-1.2-.5z" transform="rotate(57 434.112 204.329)"/>
                    <path id="Trazado_13469" d="M159.45 417.5l-8.417 8.417a1.7 1.7 0 1 0 2.407 2.407l8.417-8.417a1.7 1.7 0 1 0-2.407-2.407z" transform="rotate(57 387.631 154.406)"/>
                </g>
            </g>
        </g>
        <g id="Grupo_21744">
            <path id="Trazado_13515" d="M2131.555 252.808h-2.8V250a1.335 1.335 0 0 0-1.335-1.335h-.77a1.334 1.334 0 0 0-1.334 1.335v2.8h-2.8a1.335 1.335 0 0 0-1.335 1.335v.77a1.335 1.335 0 0 0 1.335 1.335h2.8v2.8a1.335 1.335 0 0 0 1.334 1.335h.77a1.335 1.335 0 0 0 1.335-1.335v-2.8h2.8a1.335 1.335 0 0 0 1.335-1.335v-.77a1.335 1.335 0 0 0-1.335-1.327z" class="cls-3" transform="translate(-1107.085 -54.527)"/>
            <path id="Trazado_13516" d="M2129.1 251.83h-2.141v-2.141a1.019 1.019 0 0 0-1.02-1.019h-.588a1.019 1.019 0 0 0-1.019 1.019v2.141h-2.141a1.02 1.02 0 0 0-1.02 1.019v.588a1.02 1.02 0 0 0 1.02 1.02h2.141v2.143a1.02 1.02 0 0 0 1.019 1.02h.588a1.02 1.02 0 0 0 1.02-1.02v-2.141h2.141a1.02 1.02 0 0 0 1.02-1.02v-.588a1.019 1.019 0 0 0-1.02-1.021z" class="cls-3" transform="translate(-1055.214 60.715)"/>
            <path id="Trazado_13517" d="M2131.555 252.808h-2.8V250a1.335 1.335 0 0 0-1.335-1.335h-.77a1.334 1.334 0 0 0-1.334 1.335v2.8h-2.8a1.335 1.335 0 0 0-1.335 1.335v.77a1.335 1.335 0 0 0 1.335 1.335h2.8v2.8a1.335 1.335 0 0 0 1.334 1.335h.77a1.335 1.335 0 0 0 1.335-1.335v-2.8h2.8a1.335 1.335 0 0 0 1.335-1.335v-.77a1.335 1.335 0 0 0-1.335-1.327z" class="cls-3" transform="translate(-948.406 54.856)"/>
            <path id="Trazado_13518" d="M1929.264 214.667a5.339 5.339 0 1 1-5.34-5.341 5.339 5.339 0 0 1 5.34 5.341z" class="cls-3" transform="translate(-876.589 -18.917)"/>
            <path id="Trazado_13519" d="M1700 176.086a2.769 2.769 0 1 1-2.768-2.769 2.769 2.769 0 0 1 2.768 2.769z" class="cls-3" transform="translate(-544.232 125.145)"/>
            <path id="Trazado_13520" d="M1700 176.086a2.769 2.769 0 1 1-2.768-2.769 2.769 2.769 0 0 1 2.768 2.769z" class="cls-3" transform="translate(-501.001 115.037)"/>
            <circle id="Elipse_736" cx="2.769" cy="2.769" r="2.769" class="cls-3" transform="translate(1008.944 173.73)"/>
            <g id="Grupo_21737" transform="translate(1028.354 226)">
                <g filter="url(#Trazado_13485)" transform="translate(-19.41 -74)">
                    <path id="Trazado_13485-2" fill="#2660ff" d="M12.161 0A12.161 12.161 0 1 1 0 12.161 12.161 12.161 0 0 1 12.161 0z" transform="translate(19.41 74)"/>
                </g>
                <g id="Grupo_1324" transform="translate(4.327 4.327)">
                    <path id="Trazado_1608" d="M111.056 2090.179a.429.429 0 0 1-.158-.03c-1.483-.593-1.794-1.293-1.794-1.776 0-1.77 3.941-2.7 7.834-2.7a20.92 20.92 0 0 1 4.451.444.426.426 0 0 1-.186.831 20.047 20.047 0 0 0-4.265-.424c-4.262 0-6.983 1.093-6.983 1.844 0 .233.331.614 1.259.984a.426.426 0 0 1-.158.821z" class="cls-5" transform="translate(-109.104 -2080.539)"/>
                    <path id="Trazado_1609" d="M118.615 2091.221a.425.425 0 0 1-.23-.783 20.211 20.211 0 0 0 3.248-2.673 18.215 18.215 0 0 0 3.16-4.073c.677-1.274.678-1.964.474-2.168-.145-.144-.491-.156-.953-.032a.425.425 0 0 1-.222-.822 1.746 1.746 0 0 1 1.776.252c.58.58.468 1.676-.325 3.169a19.08 19.08 0 0 1-3.309 4.276 21.044 21.044 0 0 1-3.39 2.787.422.422 0 0 1-.229.067z" class="cls-5" transform="translate(-112.496 -2078.626)"/>
                    <path id="Trazado_1610" d="M122.493 2088.711a.425.425 0 0 1-.36-.2 19.9 19.9 0 0 0-2.742-3.355 18.206 18.206 0 0 0-4.072-3.159c-1.274-.677-1.965-.678-2.169-.475-.163.163-.2.66.185 1.565a.426.426 0 0 1-.783.333c-.617-1.452-.342-2.161 0-2.5.58-.58 1.676-.468 3.17.324a19.073 19.073 0 0 1 4.275 3.31 20.8 20.8 0 0 1 2.86 3.5.426.426 0 0 1-.36.652z" class="cls-5" transform="translate(-110.254 -2078.627)"/>
                    <path id="Trazado_1611" d="M120 2094.935c-1.77 0-2.7-3.942-2.7-7.834a20.752 20.752 0 0 1 .456-4.5.425.425 0 1 1 .83.188 19.928 19.928 0 0 0-.434 4.312c0 4.262 1.092 6.983 1.844 6.983.263 0 .593-.38.882-1.016a.426.426 0 0 1 .775.352c-.453 1.005-1.011 1.515-1.653 1.515z" class="cls-5" transform="translate(-112.165 -2079.266)"/>
                    <path id="Trazado_1612" d="M122.431 2090.1a.41.41 0 0 1-.093-.011.424.424 0 0 1-.322-.508 20.045 20.045 0 0 0 .424-4.265c0-4.263-1.092-6.983-1.844-6.983-.264 0-.593.379-.881 1.015a.426.426 0 0 1-.776-.352c.456-1 1.013-1.515 1.657-1.515 1.77 0 2.7 3.941 2.7 7.834a20.866 20.866 0 0 1-.444 4.45.426.426 0 0 1-.421.335z" class="cls-5" transform="translate(-112.761 -2077.478)"/>
                    <path id="Trazado_1613" d="M113.549 2093.015a1.354 1.354 0 0 1-1-.364c-.58-.581-.468-1.677.324-3.17a19.061 19.061 0 0 1 3.31-4.275 20.819 20.819 0 0 1 3.475-2.843.426.426 0 1 1 .456.719 19.962 19.962 0 0 0-3.329 2.725 18.215 18.215 0 0 0-3.159 4.073c-.676 1.274-.678 1.965-.474 2.169.157.157.631.2 1.492-.154a.426.426 0 1 1 .323.788 3.8 3.8 0 0 1-1.418.332z" class="cls-5" transform="translate(-110.253 -2079.277)"/>
                    <path id="Trazado_1614" d="M118.726 2091.664a20.771 20.771 0 0 1-4.5-.455.426.426 0 1 1 .189-.83 19.883 19.883 0 0 0 4.311.434c4.262 0 6.983-1.092 6.983-1.844 0-.264-.38-.594-1.015-.882a.425.425 0 0 1 .351-.775c1.006.456 1.515 1.013 1.515 1.657 0 1.77-3.941 2.695-7.834 2.695z" class="cls-5" transform="translate(-110.892 -2081.135)"/>
                    <path id="Trazado_1615" d="M123.266 2094.545c-1.611 0-4.248-1.8-6.446-4a20.766 20.766 0 0 1-2.86-3.5.426.426 0 0 1 .721-.454 19.836 19.836 0 0 0 2.741 3.355c3.014 3.014 5.709 4.167 6.242 3.634.153-.153.157-.527.011-1.026a.426.426 0 1 1 .817-.239 1.8 1.8 0 0 1-.226 1.868 1.359 1.359 0 0 1-1 .362z" class="cls-5" transform="translate(-110.892 -2080.804)"/>
                </g>
            </g>
            <g id="Grupo_21738" transform="translate(8 -.303)">
                <g id="Grupo_21674" transform="translate(1061 163.25)">
                    <g id="Grupo_16533">
                        <g id="Grupo_16338">
                            <g id="Card_-_7">
                                <g filter="url(#Rectangle)" transform="translate(-60.06 -10.95)">
                                    <rect id="Rectangle-3" width="111" height="123" class="cls-5" rx="5" transform="translate(60.06 11)"/>
                                </g>
                                <g id="Title" transform="translate(93.121 24.389)">
                                    <g id="More_Icon" opacity="0.004">
                                        <path id="bound" d="M0 0H12V10H0z" class="cls-1" transform="translate(-.121 -.336)"/>
                                        <path id="Combined_Shape" fill="#a8a9bb" d="M6.222.5c0-.276.4-.5.889-.5S8 .224 8 .5s-.4.5-.889.5-.889-.224-.889-.5zM3.111.5c0-.276.4-.5.889-.5s.889.224.889.5S4.491 1 4 1 3.111.776 3.111.5zM0 .5C0 .224.4 0 .889 0s.889.224.889.5-.4.5-.889.5S0 .776 0 .5z" transform="translate(.879 4.664)"/>
                                    </g>
                                </g>
                            </g>
                        </g>
                        <g id="Graph" filter="url(#Path_97)" transform="translate(-60.056 -10.945)">
                            <path id="Path_97-2" fill="none" stroke="#00b07f" stroke-linecap="round" stroke-linejoin="round" stroke-miterlimit="10" stroke-width="1.7px" d="M72.73 0S64.5 11.9 62.64 11.9s-2.449-2.624-4.446-2.624-2.487 5.944-4.977 5.944S50.312 1.754 48.8 1.754s-.839 7.586-3.576 7.523S42.774 7.4 39.443 7.4s-9.6 10.078-13.243 10.078-2.793-2.257-5.456-2.257-1.568 6.942-7.128 6.493-3.716-4.039-5.922-4.236c-1.678-.15-1.087 4.236-2.584 4.236s-1.133-1.782-2.221-1.782S2.185 23.169 0 22.55" transform="rotate(180 74.93 38.98)"/>
                        </g>
                        <g id="Grupo_16339" transform="translate(14.412 77.275)">
                            <g id="Number">
                                <text id="_239.94" fill="#15181a" font-family="Nunito-Bold, Nunito" font-size="10px" font-weight="700" transform="translate(-.412 6.778)">
                                    <tspan x="0" y="0">$ 1,05</tspan>
                                </text>
                            </g>
                            <g id="Up" transform="translate(34.145 -.333)">
                                <g id="Up_Icon" transform="translate(2.943 -.765)">
                                    <path id="Shape" d="M0 0h8.809v8.809H0z" class="cls-1"/>
                                    <path id="Combined_Shape-2" d="M.128 4.8a.442.442 0 0 1 0-.622L3.407.88H.748a.44.44 0 0 1 0-.88h3.716A.439.439 0 0 1 4.9.421L5.056 4a.438.438 0 1 1-.875.038L4.07 1.459.748 4.8a.436.436 0 0 1-.619 0z" class="cls-10" transform="translate(2.35 1.716)"/>
                                </g>
                                <text id="_3.49_" fill="#00b07f" font-family="Nunito-SemiBold, Nunito" font-size="7px" font-weight="600" transform="translate(13.019 6.235)">
                                    <tspan x="0" y="0">31,55%</tspan>
                                </text>
                            </g>
                        </g>
                        <g id="btn-x-small-primary-contained" transform="translate(13.703 102.517)">
                            <rect id="Rectángulo_759" width="38.537" height="13.277" class="cls-10" rx="2.276"/>
                            <g id="Grupo_1473" transform="translate(6.45 2.287)">
                                <g id="Grupo_1472">
                                    <text id="Comprar" fill="#fff" font-family="Nunito-Bold, Nunito" font-size="6px" font-weight="700" transform="translate(12 6)">
                                        <tspan x="-12.063" y="0">Comprar</tspan>
                                    </text>
                                </g>
                            </g>
                        </g>
                        <g id="btn-x-small-primary-contained-2" transform="translate(59.648 102.517)">
                            <rect id="Rectángulo_759-2" width="38.537" height="13.277" fill="#fff" stroke="#00b07f" stroke-width="0.75px" rx="2.276"/>
                            <g id="Grupo_1473-2" transform="translate(9.269 2.638)">
                                <g id="Grupo_1472-2">
                                    <text id="Vender" fill="#00b07f" font-family="Nunito-Bold, Nunito" font-size="6px" font-weight="700" transform="translate(10 6)">
                                        <tspan x="-9.861" y="0">Vender</tspan>
                                    </text>
                                </g>
                            </g>
                        </g>
                    </g>
                    <g id="Grupo_16534" transform="translate(12.194 12.194)">
                        <g id="Grupo_16343">
                            <g id="Grupo_16338-2" filter="url(#Rectangle-2)" transform="translate(-72.25 -23.14)">
                                <rect id="Rectangle-4" width="27" height="27" class="cls-5" rx="13.5" transform="translate(72.06 23)"/>
                            </g>
                        </g>
                    </g>
                    <g id="Grupo_16535" transform="translate(43.453 20.846)">
                        <g id="Number-2">
                            <text id="_239.94-2" fill="#15181a" font-family="Nunito-Bold, Nunito" font-size="11px" font-weight="700" transform="translate(.547 7.207)">
                                <tspan x="0" y="0">Real Estate</tspan>
                            </text>
                        </g>
                    </g>
                </g>
                <g id="Grupo_21675" transform="translate(1079.245 179.731)">
                    <path id="Trazado_11540" d="M8808.889 11815.751v-4.206l-7.082 2.631v11.736h14.355v-6.451h-1.073" class="cls-16" transform="translate(-8801.807 -11811.545)"/>
                    <path id="Trazado_11541" d="M8814.949 11832.328v-8.8h5.889l.02 8.757" class="cls-16" transform="translate(-8808.885 -11817.995)"/>
                    <path id="Trazado_11542" d="M8811.783 11817.8v9.521" class="cls-16" transform="translate(-8807.179 -11814.913)"/>
                    <path id="Trazado_11543" d="M8808.4 11818.791v9.031" class="cls-16" transform="translate(-8805.357 -11815.447)"/>
                    <path id="Trazado_11544" d="M8805.262 11819.92v8.479" class="cls-16" transform="translate(-8803.665 -11816.056)"/>
                    <path id="Trazado_11545" d="M8818.707 11828.576h2.4" class="cls-16" transform="translate(-8810.908 -11816.597)"/>
                    <path id="Trazado_11546" d="M8818.707 11828.576h2.4" class="cls-16" transform="translate(-8810.908 -11817.981)"/>
                    <path id="Trazado_11547" d="M8818.707 11828.576h2.4" class="cls-16" transform="translate(-8810.908 -11819.366)"/>
                    <path id="Trazado_11548" d="M8818.707 11828.576h2.4" class="cls-16" transform="translate(-8810.908 -11820.75)"/>
                </g>
            </g>
            <g id="Grupo_21739" transform="translate(1157.111 205.41)">
                <circle id="Elipse_341" cx="23" cy="23" r="23" class="cls-2" transform="translate(-.112 .59)"/>
                <path id="Trazado_11549" fill="#eee" d="M17.655 0A17.655 17.655 0 1 1 0 17.655 17.655 17.655 0 0 1 17.655 0z" transform="translate(5.436 5.865)"/>
                <text id="_100_" font-family="Nunito-Bold, Nunito" font-size="10px" font-weight="700" transform="translate(22.889 26.59)">
                    <tspan x="-13.725" y="0">100%</tspan>
                </text>
            </g>
            <g id="Bitcoin_logo" transform="translate(745.774 -38.118)">
                <g filter="url(#Trazado_13335)" transform="translate(263.17 190.12)">
                    <path id="Trazado_13335-2" fill="#f7931a" d="M318.782 335.9A14.807 14.807 0 1 1 308 317.952a14.808 14.808 0 0 1 10.782 17.948z" transform="translate(-263.17 -190.12)"/>
                </g>
                <path id="Trazado_13336" d="M319.309 336.2c.295-1.971-1.206-3.03-3.258-3.737l.666-2.67-1.625-.405-.648 2.6c-.427-.107-.866-.207-1.3-.306l.653-2.617-1.624-.405-.666 2.669c-.354-.081-.7-.16-1.038-.244v-.008l-2.241-.56-.432 1.736s1.206.276 1.18.293a.865.865 0 0 1 .757.945l-.758 3.042a1.345 1.345 0 0 1 .169.054l-.172-.043-1.063 4.261a.592.592 0 0 1-.745.386c.016.024-1.181-.295-1.181-.295l-.807 1.86 2.115.527c.393.1.779.2 1.159.3l-.673 2.7 1.623.4.666-2.672c.443.12.874.231 1.3.336l-.664 2.659 1.625.405.673-2.7c2.771.524 4.855.313 5.732-2.194a2.851 2.851 0 0 0-1.493-3.941 2.592 2.592 0 0 0 2.075-2.386zm-3.713 5.207c-.5 2.018-3.9.927-5 .654l.892-3.578c1.101.275 4.633.817 4.112 2.924zm.5-5.236c-.458 1.836-3.286.9-4.2.674l.809-3.245c.917.229 3.871.656 3.395 2.571z" class="cls-5" transform="translate(-8.364 -5.989)"/>
            </g>
        </g>
    </g>
</svg>
